<?xml version="1.0" standalone="no"?>
<!DOCTYPE svg PUBLIC "-//W3C//DTD SVG 1.1//EN" "http://www.w3.org/Graphics/SVG/1.1/DTD/svg11.dtd">
<svg xmlns="http://www.w3.org/2000/svg">
<metadata>Copyright (C) 2018 by original authors @ fontello.com</metadata>
<defs>
<font id="fontello" horiz-adv-x="1000" >
<font-face font-family="fontello" font-weight="400" font-stretch="normal" units-per-em="1000" ascent="850" descent="-150" />
<missing-glyph horiz-adv-x="1000" />
<glyph glyph-name="menu-outline" unicode="&#xe800;" d="M885 38l-729 0q-21 0-37-16t-15-37 15-36 37-15l729 0q21 0 37 15t16 36-16 37-37 16z m0 104q65 0 111-46t45-111-45-110-111-46l-729 0q-65 0-110 46t-46 110 46 111 110 46l729 0z m0 261l-729 0q-21 0-37-16t-15-37 15-37 37-15l729 0q21 0 37 15t16 37-16 37-37 16z m0 104q65 0 111-46t45-111-45-110-111-46l-729 0q-65 0-110 46t-46 110 46 111 110 46l729 0z m0 260l-729 0q-21 0-37-15t-15-37 15-37 37-15l729 0q21 0 37 15t16 37-16 37-37 15z m0 105q65 0 111-46t45-111-45-110-111-46l-729 0q-65 0-110 46t-46 110 46 111 110 46l729 0z" horiz-adv-x="1041" />

<glyph glyph-name="ok-outline" unicode="&#xe801;" d="M365-41q-66 0-111 45l-208 209q-46 46-46 110 0 65 46 111 44 44 110 44t110-44l63-62 160 287q20 38 57 60t79 22q88 0 134-76t2-157l-260-469q-43-80-136-80z m-209 417q-21 0-37-16t-15-37q0-20 16-36l208-209q18-19 44-15t38 26l260 469q11 23 4 43t-24 28q-19 10-39 4t-31-24l-227-408-160 160q-15 15-37 15z" horiz-adv-x="783" />

<glyph glyph-name="cancel-outline" unicode="&#xe802;" d="M729 143q0-64-46-110t-110-47-110 47l-98 97-99-97q-43-44-110-44t-110 44q-46 46-46 110 0 65 46 111l98 98-98 97q-46 46-46 111 0 64 46 110 44 44 110 44t110-44l99-97 98 97q43 44 110 44t111-44q45-45 45-110 0-66-45-111l-99-97 99-98q45-45 45-111z m-364 135l171-171q15-15 37-15t37 15 15 36q0 22-15 37l-171 172 171 171q15 15 15 37 0 22-15 37t-37 15-37-15l-171-172-172 172q-15 15-37 15t-36-15q-16-17-16-37 0-21 16-37l171-171-171-172q-16-16-16-37 0-20 16-36 15-15 36-15t37 15z" horiz-adv-x="729" />

<glyph glyph-name="plus-outline" unicode="&#xe803;" d="M469-119q-65 0-111 46t-45 111l2 159-157-3q-65 0-112 46t-46 110 46 111 110 46l159 2-2 153q0 65 45 111t111 46 110-46 46-110l3-154 155-2q63 0 109-46t46-111-46-110-111-46l-153 3-3-160q0-64-46-110t-110-46z m-53 417l0-261q0-22 16-37t37-15 37 16 15 37l0 260 262 0q21 0 36 15t15 37-16 37-37 16l-260 0 0 260q0 22-15 37t-37 15-37-15-16-37l0-260-260 0q-22 0-37-16t-15-37 15-37 37-15l260 0z" horiz-adv-x="938" />

<glyph glyph-name="minus-outline" unicode="&#xe804;" d="M781 194l-625 0q-65 0-110 46t-46 110 46 111 110 46l625 0q65 0 111-46t46-111-46-110-111-46z m-625 209q-21 0-37-16t-15-37 15-36 37-15l625 0q22 0 37 15t16 36-16 37-37 16l-625 0z" horiz-adv-x="938" />

<glyph glyph-name="tags" unicode="&#xe805;" d="M1011 502q30-32 30-74t-30-73l-56-56 5-5q30-31 29-74t-30-73l-364-366q-30-30-74-30t-73 30q-227 227-342 338-106 106-106 258 0 102 54 188-8 165 105 278 106 106 257 106 153 0 259-106z m-490-647l364 365-336 340q-76 77-184 77-109 0-185-77t-76-183 76-184q115-111 341-338z m102 779l258-261 57 56-337 340q-76 76-185 76-107 0-183-76-35-35-54-79 86 52 186 52 150 0 258-108z m-258-179q-32 0-56-23t-23-55 23-55 56-23 55 23 23 55-23 55-55 23z m0 52q54 0 92-39t38-91-38-92-92-38-92 38-38 92 38 91 92 39z" horiz-adv-x="1041" />

<glyph glyph-name="pencil" unicode="&#xe806;" d="M938 605q22-22 22-55t-22-55l-570-570q-22-21-60-38t-73-17l-235 0 0 234q0 35 17 74t38 60l570 570q23 22 55 22t55-22z m-794-426l65-64 431 433-64 63z m91-205q14 0 33 8-10 10-27 26t-50 50-56 56l-22 22q-9-21-9-32l0-78 52-52 79 0z m74 40l432 432-63 64-433-431z m469 469l67 67-165 165-67-66z" horiz-adv-x="960" />

<glyph glyph-name="cog-outline" unicode="&#xe807;" d="M560 741l-156 0-45-178-176 51-79-136 133-128-133-127 79-135 176 50 45-178 156 0 44 178 178-50 77 135-132 127 132 128-77 136-178-51z m0 104q35 0 63-22t37-57l19-73 74 21q15 4 29 4 60 0 90-53l77-135q18-31 13-66t-30-60l-55-54 55-52q25-25 30-60t-13-67l-77-136q-30-51-90-51-14 0-29 3l-74 21-17-74q-9-35-37-57t-65-22l-156 0q-36 0-64 22t-37 57l-19 74-72-22q-15-4-29-4-60 0-90 53l-79 135q-18 31-13 67t31 61l55 52-55 53q-25 25-30 60t12 67l79 135q30 53 90 53 14 0 29-4l72-21 19 73q9 35 37 57t64 22l156 0z m-78-391q-44 0-74-30t-30-74 30-74 74-30 74 31 31 73-31 73-74 31z m0 52q65 0 110-45t46-111-46-111-110-45-111 45-46 111 46 111 111 45z" horiz-adv-x="963" />

<glyph glyph-name="left-open-outline" unicode="&#xe808;" d="M638 91q0-64-47-111t-110-46q-65 0-110 45l-371 372 371 371q44 44 111 44t111-44q45-45 45-111 0-65-45-110l-150-150 150-150q45-45 45-110z m-490 260l297-298q15-15 37-15t37 15 15 38q0 21-15 36l-224 224 224 223q15 15 15 37 0 22-15 37t-37 15-37-15z" horiz-adv-x="638" />

<glyph glyph-name="right-open-outline" unicode="&#xe809;" d="M156-66q-63 0-110 46t-46 111 46 110l150 150-150 150q-46 46-46 110 0 65 46 111 44 44 110 44t110-44l372-371-372-372q-45-45-110-45z m0 729q-21 0-37-16t-15-36q0-20 16-37l223-223-223-224q-16-16-16-36 0-22 16-38 15-15 36-15t37 15l297 298-297 297q-15 15-37 15z" horiz-adv-x="638" />

<glyph glyph-name="briefcase" unicode="&#xe80a;" d="M781 610q65 0 111-45t46-111l0-364q0-65-46-110t-111-46l-625 0q-65 0-110 46t-46 110l0 364q0 65 46 111t110 45q0 65 46 111t111 46l312 0q65 0 111-46t45-111z m-468 53q-22 0-37-16t-16-37l418 0q0 22-16 37t-37 16l-312 0z m521-573l0 52-730 0 0-52q0-21 15-37t37-15l625 0q22 0 37 15t16 37z m-730 104l730 0 0 260q0 21-16 37t-37 16l-625 0q-21 0-37-16t-15-37l0-260z m417 156q22 0 37-15t15-37-15-36-37-15l-105 0q-21 0-36 15t-15 36 15 37 36 15l105 0z" horiz-adv-x="938" />

<glyph glyph-name="gift" unicode="&#xe80b;" d="M885 585q21 0 37-16t16-36l0-209q0-21-16-36t-37-15l0-262q0-65-46-110t-110-46l-520 0q-65 0-111 46t-45 110l0 262q-22 0-37 15t-16 36l0 209q0 21 16 36t37 16l122 0q-19 40-19 78 0 75 54 128t129 54q77 0 130-55 52 55 130 55 75 0 129-54t53-128q0-38-18-78l122 0z m-51-209l0 104-261 0 0-104 261 0z m-418 260l0-51 105 0 0 51-105 0z m105-156l-105 0 0-104 105 0 0 104z m78 261q-25 0-46-15t-28-38q20-3 34-17t14-35l0-46q15-5 26-5 32 0 55 23t24 55-24 55-55 23z m-339-78q0-32 23-55t56-23q11 0 26 5l0 46q0 20 14 35t34 17q-8 23-29 38t-45 15q-31 0-55-23t-24-55z m105-183l-261 0 0-104 261 0 0 104z m-156-520l156 0 0 364-209 0 0-313q0-21 16-36t37-15z m207 0l105 0 0 364-105 0 0-364z m313 0q21 0 37 15t15 36l0 313-208 0 0-364 156 0z" horiz-adv-x="938" />

<glyph glyph-name="check" unicode="&#xe80c;" d="M249 0q-34 0-56 28l-180 236q-16 24-12 52t26 46 51 14 47-28l118-154 296 474q16 24 43 30t53-8q24-16 30-43t-8-53l-350-560q-20-32-56-32z" horiz-adv-x="667" />

<glyph glyph-name="cancel" unicode="&#xe80d;" d="M452 194q18-18 18-43t-18-43q-18-16-43-16t-43 16l-132 152-132-152q-18-16-43-16t-43 16q-16 18-16 43t16 43l138 156-138 158q-16 18-16 43t16 43q18 16 43 16t43-16l132-152 132 152q18 16 43 16t43-16q18-18 18-43t-18-43l-138-158z" horiz-adv-x="470" />

<glyph glyph-name="book" unicode="&#xe80e;" d="M915 583q22-31 10-72l-154-505q-10-36-42-60t-69-25h-515q-43 0-83 30t-55 74q-14 37-1 71 0 2 1 15t3 20q0 5-2 12t-2 11q1 6 5 12t9 13 9 13q13 21 25 51t17 51q2 6 0 17t0 16q2 6 9 15t10 13q12 20 23 51t14 51q1 5-1 17t0 16q2 7 12 17t13 13q10 14 23 47t16 54q0 4-2 14t-1 15q1 4 5 10t10 13 10 11q4 7 9 17t8 20 9 20 11 18 15 13 20 6 26-3l0-1q21 5 28 5h425q41 0 64-32t10-72l-153-506q-20-66-40-85t-72-20h-485q-15 0-21-8-6-9-1-24 14-39 81-39h515q16 0 31 9t20 23l167 550q4 13 3 32 21-8 33-24z m-594-1q-2-7 1-12t11-6h339q8 0 15 6t9 12l12 36q2 7-1 12t-12 6h-339q-7 0-14-6t-9-12z m-46-143q-3-7 1-12t11-6h339q7 0 14 6t10 12l11 36q3 7-1 13t-11 5h-339q-7 0-14-5t-10-13z" horiz-adv-x="928.6" />

<glyph glyph-name="search-outline" unicode="&#xe80f;" d="M511 580q-65 0-110-46t-46-110 46-111 110-45 111 45 46 111-46 110-111 46z m0 51q87 0 147-60t61-147-61-148-147-61-147 61-61 148 61 147 147 60z m-511-555q0 68 48 115l117 119q-19 54-19 114 0 151 107 257t258 107 258-107 106-257-106-258-258-107q-53 0-113 19l-125-124q-49-42-110-42-68 0-115 49t-48 115z m336 88q-51 34-85 85l-130-131q-17-15-17-42 0-25 17-42t42-18q22 0 42 18z m175-1q108 0 184 76t76 185-76 184-184 76-184-76-77-184 77-185 184-76z" horiz-adv-x="875" />

<glyph glyph-name="clock" unicode="&#xe810;" d="M0 350q0 95 37 182t100 149 150 100 182 37 182-37 149-100 100-149 37-182-37-182-100-150-149-100-182-37-182 37-150 100-100 150-37 182z m117 0q0-96 47-177t128-128 177-47q95 0 176 47t128 128 47 177q0 95-47 176t-128 128-176 47q-72 0-137-28t-112-75-75-112-28-136z m293 0v224q0 24 17 41t42 18 41-18 17-41v-200l142-141q17-17 17-42t-17-41-41-17q-25 0-42 17l-159 158q-1 2-4 5t-3 4q-1 2-2 4l-2 3t-1 4q-1 0-2 5-2 5-2 5-1 6-1 12z" horiz-adv-x="937.5" />

<glyph glyph-name="mail" unicode="&#xe811;" d="M834 688q44 0 74-30t30-74l0-468q0-43-30-74t-74-30l-730 0q-44 0-74 30t-30 74l0 468q0 44 30 74t74 30l730 0z m-421-454l-82 72-190-190 655 0-190 190-81-72q-24-20-56-20t-56 20z m-309-82l187 189-187 163 0-352z m542 189l188-188 0 351z m188 243l-730 0 0-11 342-300q9-7 23-7t22 7l343 300 0 11z" horiz-adv-x="938" />

<glyph glyph-name="star" unicode="&#xe812;" d="M741-118q-19 0-39 12l-213 121-215-121q-44-24-84 3-41 29-31 79l50 243q-10 9-39 35t-45 40l-99 90q-37 35-21 82t66 54l244 26 102 225q22 47 72 47 47 0 71-47l101-225 245-27q48-4 65-52t-21-83l-183-166 50-242q7-35-16-64t-60-30z m-425 343q-1-4-7-36t-17-84-20-92l190 107q27 14 52 0l190-107-44 213q-6 29 16 49l161 148-217 23q-30 4-41 30l-90 199-90-199q-13-26-43-30l-216-23 161-148q21-19 15-50z" horiz-adv-x="976" />

<glyph glyph-name="picture-outline" unicode="&#xe813;" d="M339 559q-31 0-55-23t-24-56q0-31 23-54t56-23q31 0 54 22t23 55-23 56-54 23z m0 51q54 0 92-37t38-93-38-92-92-38-92 38-38 92 38 93 92 37z m156-416q-49 0-94 26t-88 27q-40 0-84-105l592 0q-18 85-46 145t-46 63q-34 0-96-70-25-27-41-42t-43-29-54-15z m234 209q46 0 85-78t55-157l16-78-729 0q3 9 7 23t18 49 32 63 43 50 57 23q55 0 101-26t81-25q25 0 54 24t53 54 57 53 70 25z m312 260l0-625q0-43-30-73t-73-31l-834 0q-44 0-74 31t-30 73l0 625q0 42 30 73t74 31l834 0q42 0 73-31t30-73z m-103-625l0 625-834 0 0-625 834 0z" horiz-adv-x="1041" />

<glyph glyph-name="home" unicode="&#xe814;" d="M885 575l276 0 0-90-1161 0 0 90 548 0 0 173 337 0 0-173z m-777-134l943 0 0-489-568 0 0 301-170 0 0-301-205 0 0 489z m671-245l0 177-146 0 0-177 146 0z m191 0l0 177-146 0 0-177 146 0z" horiz-adv-x="1161" />

<glyph glyph-name="basket" unicode="&#xe815;" d="M139 76c45 0 79-35 79-79 0-43-34-78-79-78-43 0-78 35-78 78 0 44 35 79 78 79z m530 0c44 0 77-35 77-79 0-43-33-78-77-78s-79 35-79 78c0 44 35 79 79 79z m-478 588l565 0c38 0 55-22 55-50l0-233c0-27-20-48-46-50l-505-57c-41-5-46-58 3-58l478 0c55 0 55-82 0-82l-488 0c-110 0-152 122-65 185l43 33-155 339-76 0c-59 0-59 90 0 90l89 0c45 0 57-22 71-54z m345-70l-130 0 27-85 123 0z m-312 0l39-85 126 0-28 85-137 0z m109-241l100 10-33 101-119 0z m143 15l113 11-25 85-119 0z m267 29l0 67-133 0 20-78z m0 112l0 85-162 0 19-85 143 0z" horiz-adv-x="811" />

<glyph glyph-name="user-1" unicode="&#xf061;" d="M0-119q0 9 1 23t11 47 27 49q17 17 68 38t115 43 93 38q38 19 59 56t20 76q0 27-32 63-33 38-53 102t-20 149q0 64 18 113t49 80 71 45 85 15 85-15 71-45 49-80 18-113q0-84-20-149t-52-102q-33-37-33-63 0-39 21-76t59-56q29-15 93-38t114-43 68-38q17-17 27-47t11-51l1-21h-1024z" horiz-adv-x="1024.9" />

<glyph glyph-name="magic" unicode="&#xf0d0;" d="M664 526l164 163-60 60-164-163z m250 163q0-15-10-25l-718-718q-10-10-25-10t-25 10l-111 111q-10 10-10 25t10 25l718 718q10 10 25 10t25-10l111-111q10-10 10-25z m-754 106l54-16-54-17-17-55-17 55-55 17 55 16 17 55z m195-90l109-34-109-33-34-109-33 109-109 33 109 34 33 109z m519-267l55-17-55-16-17-55-17 55-54 16 54 17 17 55z m-357 357l54-16-54-17-17-55-17 55-54 17 54 16 17 55z" horiz-adv-x="928.6" />

<glyph glyph-name="help" unicode="&#xf128;" d="M393 149v-134q0-9-7-15t-15-7h-134q-9 0-16 7t-7 15v134q0 9 7 16t16 6h134q9 0 15-6t7-16z m176 335q0-30-8-56t-20-43-31-33-32-25-34-19q-23-13-38-37t-15-37q0-10-7-18t-16-9h-134q-8 0-14 11t-6 20v26q0 46 37 87t79 60q33 16 47 32t14 42q0 24-26 41t-60 18q-36 0-60-16-20-14-60-64-7-9-17-9-7 0-14 4l-91 70q-8 6-9 14t3 16q89 148 259 148 45 0 90-17t81-46 59-72 23-88z" horiz-adv-x="571.4" />

<glyph glyph-name="child" unicode="&#xf1ae;" d="M663 544l-163-163v-460q0-25-18-44t-44-18-45 18-18 44v215h-36v-215q0-25-18-44t-44-18-44 18-19 44v460l-163 163q-15 16-15 38t15 38q17 16 39 16t37-16l128-127h205l127 127q16 16 38 16t38-16q16-16 16-38t-16-38z m-181 92q0-52-36-89t-89-36-88 36-37 89 37 88 88 37 89-37 36-88z" horiz-adv-x="714.3" />

<glyph glyph-name="cart-plus" unicode="&#xf217;" d="M679 457q0 15-11 25t-25 11h-72v71q0 15-10 25t-25 11-25-11-11-25v-71h-71q-15 0-25-11t-11-25 11-25 25-11h71v-71q0-14 11-25t25-11 25 11 10 25v71h72q14 0 25 11t11 25z m-322-464q0-30-21-51t-50-21-51 21-21 51 21 50 51 21 50-21 21-50z m500 0q0-30-21-51t-50-21-51 21-21 51 21 50 51 21 50-21 21-50z m72 607v-286q0-13-9-23t-23-12l-583-68q1-4 3-12t3-15 1-13q0-8-13-35h513q15 0 26-11t10-25-10-25-26-11h-571q-14 0-25 11t-11 25q0 8 6 22t17 33 11 22l-98 459h-114q-15 0-25 10t-11 25 11 26 25 10h143q9 0 16-3t11-9 7-14 4-15 3-16 3-14h670q14 0 25-11t11-25z" horiz-adv-x="928.6" />

<glyph glyph-name="whatsapp" unicode="&#xf232;" d="M550 307q7 0 54-25t50-30q1-2 1-8 0-18-9-42-9-22-40-37t-57-15q-32 0-106 35-55 25-95 66t-82 103q-41 60-40 108v5q2 50 41 88 14 12 29 12 4 0 10-1t11-1q11 0 15-3t8-16q5-11 19-49t14-41q0-12-19-33t-20-26q0-3 3-8 19-41 57-76 31-30 84-57 7-4 13-4 8 0 30 27t29 28z m-114-296q71 0 136 28t112 74 75 112 28 136-28 136-75 112-112 75-136 28-135-28-112-75-75-112-28-136q0-113 67-205l-44-130 135 43q88-58 192-58z m0 771q86 0 164-34t134-89 90-135 33-163-33-163-90-134-134-90-164-34q-108 0-203 53l-233-75 76 226q-60 99-60 217 0 86 33 163t90 135 134 89 163 34z" horiz-adv-x="857.1" />

<glyph glyph-name="snowflake-o" unicode="&#xf2dc;" d="M874 227l-93-19 104-59q12-8 16-22t-4-27q-7-13-21-16t-27 3l-104 59 31-89q7-21-7-35t-34-12-27 24l-57 167-151 87v-175l116-132q9-11 10-22t-7-21-15-14-21-3-20 13l-63 71v-119q0-15-11-25t-25-11-25 11-10 25v119l-63-71q-9-10-20-13t-21 3-16 14-6 21 10 22l116 132v175l-152-87-57-167q-7-21-27-24t-33 12-7 35l31 89-104-59q-13-7-27-3t-22 16q-7 13-3 27t16 22l104 59-93 19q-16 3-24 16t-4 26 14 22 28 6l173-35 151 88-151 88-173-35q-3 0-8 0-15 0-24 10t-11 22 6 24 23 14l93 19-104 60q-13 7-16 21t3 27 22 17 27-4l104-59-31 89q-7 21 7 35t33 12 27-24l57-167 152-87v175l-116 132q-9 11-10 22t6 21 16 14 21 3 20-13l63-71v119q0 15 10 25t25 11 25-11 11-25v-119l63 71q8 10 20 13t21-3 15-14 7-21-10-22l-116-132v-175l151 87 57 167q7 21 27 24t34-12 7-35l-31-89 104 59q13 7 27 4t21-17q8-13 4-27t-16-21l-104-60 93-19q15-2 22-14t6-24-10-22-25-10q-5 0-7 0l-173 35-151-88 151-88 173 35q16 3 28-6t14-22-5-26-23-16z" horiz-adv-x="928.6" />

<glyph glyph-name="facebook-1" unicode="&#xf300;" d="M124-150v469h-124v169h124v145c0 113 73 217 242 217 69 0 119-7 119-7l-4-157s-51 0-108 0c-60 0-70-28-70-74v-124h183l-8-169h-175v-469h-179" horiz-adv-x="486" />

<glyph glyph-name="twitter-bird" unicode="&#xf303;" d="M1231 732q-51-77-126-131 1-14 1-32 0-102-30-203-29-102-90-195-61-92-145-164-84-72-201-114-118-43-253-43-210 0-387 113 31-3 60-3 176 0 314 108-82 2-147 51-64 49-89 125 24-5 48-5 34 0 66 9-87 17-145 87-57 69-57 160l0 4q53-30 114-32-52 34-82 90-30 55-30 120 0 68 34 127 95-117 230-186 135-70 290-78-6 28-6 58 0 104 74 178 74 74 178 74 110 0 185-80 85 17 160 62-29-91-111-140 76 9 145 40z" horiz-adv-x="1231" />

<glyph glyph-name="youtube" unicode="&#xf313;" d="M807 739v-313h-64v35q-37-39-74-39-45 0-45 56v261h64v-240q0-21 17-21t38 24v237h64z m-237-73v-162q0-42-25-64t-68-22q-41 0-66 24t-26 63v162q0 39 28 60t67 20q38 0 64-22t26-59z m-65-167v171q0 10-9 17t-19 6-18-6-8-17v-171q0-26 26-26 28 0 28 26z m-190 351h73l-55-165q-4-12-10-27t-10-28-8-28v-176h-72v168q-2 12-29 85l-57 171h73l46-169h5z m611-739q0-49-6-145-4-50-38-80t-85-31q-99-5-297-5-199 0-297 5-50 2-84 31t-39 80q-6 96-6 145t6 145q4 50 39 80t84 31q98 5 297 5t297-5q50-2 85-31t38-80q6-96 6-145z m-71-91v19h-53q0-2 1-13t0-15-3-12-7-10-14-3q-10 0-15 6t-6 12-1 17v48h98v64q0 35-19 55t-54 20q-34 0-56-20t-23-55v-113q0-36 20-58t55-21q77 0 77 79z m-191-19v140q0 63-50 63-25 0-46-23v110h-52v-343h52v20q22-23 49-23 47 0 47 56z m-250-53h51v253h-51v-192q-17-19-31-19-13 0-13 17v194h-52v-213q0-44 36-44 30 0 60 32v-28z m-156 293h61v50h-179v-50h60v-293h58v293z m544-105v-28h-45v28q0 27 23 27 22 0 22-27z m-191 3v-133q0-21-18-21-14 0-25 11v158q10 10 22 10 21 0 21-25z" horiz-adv-x="1000" />

<glyph glyph-name="instagram" unicode="&#xf31e;" d="M749 849h-498c-138 0-249-111-249-248v-502c0-137 111-248 249-248h498c138 0 250 111 250 248v502c0 137-112 248-250 248z m157-750c0-86-70-156-157-156h-498c-87 0-157 70-157 156v324h197c-14-30-23-64-23-100 0-130 107-236 237-236 131 0 237 106 237 236 0 36-8 70-23 100h187v-324z m-499 224c0 54 44 98 98 98 54 0 98-44 98-98 0-54-44-98-98-98-54 0-98 44-98 98z m499 192h-264c-39 28-86 44-137 44-51 0-98-16-137-44h-274v86c0 86 70 156 157 156h498c87 0 157-70 157-156v-86h0z m-100 186h-85c-15 0-28-12-28-27v-86c0-15 13-27 28-27h85c16 0 28 12 28 27v86c0 15-12 27-28 27z" horiz-adv-x="1000" />

<glyph glyph-name="bandcamp" unicode="&#xf32b;" d="M0 58l694 0 306 584-667 0z" horiz-adv-x="1000" />
</font>
</defs>
</svg>